HW 02
…
# Step 7: Select and rename final columns
pac_final <- pac_clean |> 
  select(year,
         pac_name_affiliate,
         country,
         parent_company,
         dems,
         repubs)

# View the cleaned tibble
pac_final

# A tibble: 2,394 × 6
    year pac_name_affiliate   country parent_company  dems repubs
   <int> <chr>                <chr>   <chr>          <dbl>  <dbl>
 1  1999 7-Eleven             Japan   Ito-Yokado      1500   7000
 2  1999 ABB Group            Switze… Asea Brown Bo… 17000  28500
 3  1999 Accenture            UK      Accenture plc  23000  52984
 4  1999 ACE INA              UK      ACE Group      12500  26000
 5  1999 Acuson Corp (Siemen… Germany Siemens AG      2000      0
 6  1999 Adtranz (DaimlerChr… Germany DaimlerChrysl… 10000    500
 7  1999 AE Staley Manufactu… UK      Tate & Lyle    10000  14000
 8  1999 AEGON USA (AEGON NV) Nether… Aegon NV       10500  47750
 9  1999 AIM Management Group UK      AMVESCAP       10000  15000
10  1999 Air Liquide America  France  L'Air Liquide…     0      0
# ℹ 2,384 more rows
…
